Networks per gen:   5000
Generations:        200
Trials per network: 1
Crossover mode:     INCOMING_IN_BLOCKS
State vector mode:  MODE4
Turning mode:       ABSOLUTE
Mutation rate:      0.05
Initial Generation: random
  Gen Score Current  HI   Gen#   Score#  Survivors#      Steps per game
    1     4       4   4      1        1          20              7.3286
    2     4       1   4      2        1          21              7.5742
    3     3       1   4      3        3          27              7.5084
    4     3       1   4      4        2          37              8.0118
    5     3       0   4      5        1          41              7.8842
    6     3       3   3      1        1          38              7.8446
    7     3       0   3      2        2          39              8.0426
    8     3       1   3      2        1          32              8.0876
    9     3       3   3      1        1          33              8.2868
   10     3       2   3      2        2          43              8.5714
Cumulative Score of the last 10 generations:3.13333333333333
   11     3       0   3      2        2          50              8.2532
   12     3       0   3      2        1          56              8.4824
   13     3       3   3      1        2          57              8.5782
   14     3       0   3      2        4          53              8.3156
   15     3       0   3      2        3          52              8.5808
   16     3       3   3      1        3          48              8.6376
   17     3       0   3      2        4          63              8.7866
   18     3       1   3      2        3          72               8.881
   19     4       4   4      1        1          67              8.5852
   20     4       0   4      2        1          56              9.0366
Cumulative Score of the last 10 generations:3.08333333333333
   21     3       1   4      3        3          50              8.8802
   22     3       1   4      4        3          62              9.3122
   23     3       2   4      5        3          59               9.303
   24     2       0   4      6       59         574              9.1376
   25     3       3   3      1        2          65               8.977
   26     3       1   3      2        6          72              9.1012
   27     3       0   3      2        6          70              8.8512
   28     3       3   3      1        5          76              9.1438
   29     3       1   3      2        7          74              9.2614
   30     3       3   3      1        7          70               9.333
Cumulative Score of the last 10 generations:2.41584158415842
   31     3       0   3      2        5          73              9.8204
   32     3       0   3      2        4          83              9.6564
   33     4       4   4      1        1          78              9.5802
   34     4       2   4      2        1          72              9.8846
   35     3       0   4      3        3          82                9.47
   36     5       5   5      4        1          20              9.7908
   37     5       0   5      5        1          20             10.1128
   38     4       1   5      6        1          63              9.1618
   39     4       0   5      7        2          95              10.346
   40     4       1   5      8        2          94              9.5402
Cumulative Score of the last 10 generations:3.52380952380952
   41     3       0   5      9        6          76              9.6878
   42     3       0   5     10        6          78              9.9572
   43     3       0   5     11       10          79              9.1712
   44     3       0   3      2        6          60              9.0094
   45     3       0   3      2        6          66                9.69
   46     3       1   3      4        5          80              9.5244
   47     3       3   3      1        2          82               9.787
   48     3       0   3      2        2          77              9.6778
   49     3       1   3      2        2          74              9.4386
   50     3       3   3      1        3          78               9.431
Cumulative Score of the last 10 generations:3
   51     3       0   3      2        4          72              9.4366
   52     3       3   3      1        5          76              9.3838
   53     3       3   3      2        9          95              9.6762
   54     3       0   3      3       10          87             10.8474
   55     4       4   4      2        1          85             10.0194
   56     4       0   4      3        1          92               9.804
   57     3       3   4      4        8          90              9.6908
   58     3       1   4      5       11          89             10.0746
   59     3       0   4      6        9          84              9.3942
   60     3       0   3      2        4          88              9.3816
Cumulative Score of the last 10 generations:3.03225806451613
   61     4       4   4      1        1          96              9.8592
   62     4       0   4      2        1         107              9.5164
   63     3       1   4      3        8         110              9.6564
   64     3       0   4      4        9         107              9.6528
   65     3       0   4      5        7         104              9.9424
   66     5       5   5      5        1          20              9.8384
   67     5       0   5      6        1          20             10.6382
   68     4       2   5      7        1          59              10.519
   69     5       5   5      6        1          20             10.4176
   70     5       1   5      7        1          20             11.6728
Cumulative Score of the last 10 generations:3.35483870967742
   71     5       5   5      1        2          21              13.982
   72     8       8   8      1        1          20             20.2602
   73     9       9   9      1        1          20             24.4634
   74    10      10  10      1        1          20             29.8212
   75    10       1  10      2        2          25             26.3912
   76    10       1  10      2        1          30             22.7256
   77    12      12  12      2        1          20             23.8684
   78    14      14  14      2        1          20             24.2894
   79    14       0  14      3        1          20             24.0814
   80    13       0  14      4        1          20              23.322
Cumulative Score of the last 10 generations:10
   81    13       0  14      5        1          20              23.567
   82    13       0  14      6        1          20             25.3098
   83    14      14  14      8        1          20             23.9688
   84    14       0  14      9        1          20             22.9138
   85    13       0  14     10        1          20             22.7702
   86    13       0  14     11        1          20               22.95
   87    13       0  14     12        1          20             22.7182
   88    14      14  14      1        1          20             23.3174
   89    14       3  14      2        1          22             23.5324
   90    13       0  14      3        1          25              23.498
Cumulative Score of the last 10 generations:13.4
   91    18      18  18      1        1          20             25.7406
   92    18       8  18      2        1          20              25.957
   93    17       1  18      3        1          20             26.0116
   94    17       6  18      4        1          20             27.4558
   95    18      18  18      5        1          20              29.696
   96    18      12  18      6        1          20             28.3158
   97    17       4  18      7        1          20             28.7632
   98    20      20  20      1        1          20             28.1816
   99    21      21  21      2        1          20             27.0884
  100    21      20  21      3        2          20             25.1998
Cumulative Score of the last 10 generations:18.7272727272727
  101    21       8  21     11        1          20             25.5252
  102    20       1  21     12        2          20             26.2206
  103    20       5  21     13        2          20             27.6856
  104    20       5  21     14        1          20             27.0476
  105    19       1  21     15        2          20             26.2032
  106    19       2  21     16        2          20             25.5868
  107    19       4  21     17        1          20             26.4712
  108    24      24  24     11        1          20             25.5458
  109    24      10  24     12        1          20             26.3502
  110    24      24  24      1        1          20             27.3952
Cumulative Score of the last 10 generations:20.5714285714286
  111    24       0  24      2        1          20             28.3898
  112    23       0  24      3        2          20             28.9588
  113    23       0  24      4        1          20              30.424
  114    24      24  24      5        1          20             28.9444
  115    24       0  24      6        1          20             28.8818
  116    23      11  24      7        1          20             30.6378
  117    23       4  24      8        1          20             31.5522
  118    30      30  30      1        1          20                  31
  119    30       0  30      2        1          20             32.9328
  120    29       4  30      3        1          20               29.46
Cumulative Score of the last 10 generations:25.0909090909091
  121    29       0  30      4        1          20              30.732
  122    29       0  30      5        1          20             30.5108
  123    28       0  30      6        1          20             32.4446
  124    28      13  30      7        1          20              32.216
  125    28       1  30      8        1          26             30.0952
  126    27       0  30      9        1          28              28.639
  127    27      13  30     10        1          28             28.9682
  128    27       0  30     11        1          30             30.6196
  129    26      21  30     12        1          32             31.9692
  130    26       0  30     13        1          33             29.0354
Cumulative Score of the last 10 generations:27.5
  131    26       5  30     14        1          36              31.556
  132    25       6  30     15        1          36             30.1184
  133    27      27  27     10        1          30             30.7528
  134    27      16  27     11        1          31             31.3966
  135    31      31  31     18        1          28              28.495
  136    31      12  31     19        1          29             30.0364
  137    30       4  31     20        1          32             30.1482
  138    30       3  31     21        1          36             33.1496
  139    30       0  31     22        1          38             32.7566
  140    29      21  31     23        1          39             34.0274
Cumulative Score of the last 10 generations:28.6
  141    29       6  31     24        1          41             35.1278
  142    29      28  31     25        1          40             33.2876
  143    28       0  31     26        1          41             36.6976
  144    28       9  31     27        1          42             34.1306
  145    28       0  31     28        1          45             35.9976
  146    27       8  31     29        1          49             32.4386
  147    27      19  31     30        1          50             34.7702
  148    27       9  31     31        1          52             34.9282
  149    27      27  27      5        1          51              33.634
  150    30      30  31     33        1          49             30.2628
Cumulative Score of the last 10 generations:28
  151    30      30  30     54        1          52             33.3206
  152    30       6  30     55        1          50             32.0724
  153    30      30  30     26        1          48              32.576
  154    34      34  34     37        1          36             31.7604
  155    34       1  34     38        1          36             32.8708
  156    33      15  34     39        1          37             31.9394
  157    33       7  34     40        1          38             32.6958
  158    33      13  34     41        1          38             32.8356
  159    32       6  34     42        1          39             32.7638
  160    32       0  34     43        1          39             34.5756
Cumulative Score of the last 10 generations:32.1
  161    32       0  34     44        1          38             31.4816
  162    31       0  34     45        1          37             32.3046
  163    31       0  34     46        1          35             32.5484
  164    31       7  34     47        1          34             33.9398
  165    30      27  34     48        1          36              33.787
  166    30      16  34     49        1          37             31.8652
  167    30       6  34     50        1          39             33.5872
  168    29       0  34     51        1          40              33.364
  169    29       2  34     52        1          40              31.746
  170    29       0  34     53        1          41             32.0728
Cumulative Score of the last 10 generations:30.2
  171    28       9  34     54        1          43             35.1634
  172    28       0  34     55        1          45             35.0374
  173    30      30  30      3        1          41             32.5748
  174    31      31  34     57        1          38             35.1534
  175    29      11  30      5        1          41              35.494
  176    29       0  30      6        2          44             34.6838
  177    29      19  30      7        2          47             37.4552
  178    31      31  31      6        1          42             35.3028
  179    31      25  31      7        1          40             31.6288
  180    30      22  31      8        1          42             34.3236
Cumulative Score of the last 10 generations:29.5
  181    30      25  31      9        2          41             34.1158
  182    31      31  31      5        1          40              35.006
  183    31       1  31      6        1          40             35.5854
  184    31      31  31     12        1          38             34.9918
  185    34      34  34     68        1          32             34.2414
  186    34      17  34     69        1          33             37.7504
  187    33      25  34     70        1          33             36.7158
  188    33      12  34     71        1          32              36.381
  189    33       3  34     72        1          33             35.1676
  190    32       2  34     73        2          35             36.3726
Cumulative Score of the last 10 generations:32
  191    32       6  34     74        1          35             36.1388
  192    35      35  35     20        1          30              35.845
  193    35      28  35     21        1          29             35.8974
  194    34      26  35     22        1          30             39.9512
  195    34      21  35     23        1          31              35.535
  196    34      30  35     24        1          35             35.6662
  197    33      30  35     25        1          34             37.5026
  198    33      33  35     26        1          35             36.4262
  199    33      33  35     27        1          36             39.7292
  200    32      18  35     28        1          38             38.1512
Cumulative Score of the last 10 generations:33.5
Best score across all generations:35
===Stats===
Mutations per generation:237639
Count by fired neuron
0:25%; 1:24%; 2:25%; 3:23%; 
Average of resulting vectors
0:0.56;1:0.53;2:0.56;3:0.53;
Average of input vectors

0	0.03	0.62	0.04	
3	0.06	0.32	0.1	
6	0.03	0.62	0.03	
9	0.04	0.37	0.11	
12	0.03	0.75	0.03	
15	0.03	0.46	0.1	
18	0.02	0.79	0.03	
21	0.04	0.41	0.12	
58059 games ran out of steps

Elapsed=00:20:48.0888870
